// Jest Snapshot v1, https://goo.gl/fbAQLP

exports[`App renders a scan button that gets a product 1`] = `
<DocumentFragment>
  <div
    class="app"
  >
    <div
      class="buttons"
    >
      <button
        title="scan"
      >
        SCAN
      </button>
      <button
        title="exit"
      >
        EXIT
      </button>
    </div>
    <hr />
    <div
      class="grid"
    >
      <div>
        <h2>
          LCD
        </h2>
        <div>
          <div>
            Product Name: TEST
          </div>
          <div>
            Product Price: $10.00
          </div>
        </div>
      </div>
      <div>
        <h2>
          PRINTER
        </h2>
      </div>
    </div>
  </div>
</DocumentFragment>
`;

exports[`App renders a scan button that renders an error 1`] = `
<DocumentFragment>
  <div
    class="app"
  >
    <div
      class="buttons"
    >
      <button
        title="scan"
      >
        SCAN
      </button>
      <button
        title="exit"
      >
        EXIT
      </button>
    </div>
    <hr />
    <div
      class="grid"
    >
      <div>
        <h2>
          LCD
        </h2>
        <div
          class="error"
        >
          ERROR
        </div>
      </div>
      <div>
        <h2>
          PRINTER
        </h2>
      </div>
    </div>
  </div>
</DocumentFragment>
`;

exports[`App renders an exit button 1`] = `
<DocumentFragment>
  <div
    class="app"
  >
    <div
      class="buttons"
    >
      <button
        title="scan"
      >
        SCAN
      </button>
      <button
        title="exit"
      >
        EXIT
      </button>
    </div>
    <hr />
    <div
      class="grid"
    >
      <div>
        <h2>
          LCD
        </h2>
        <div>
          Total: $0.00
        </div>
      </div>
      <div>
        <h2>
          PRINTER
        </h2>
        <div>
          <br />
          <div>
            Total: $0.00
          </div>
        </div>
      </div>
    </div>
  </div>
</DocumentFragment>
`;
